{
  "notes": "View for T-0 conveyor",
  "calib_image": "calib_board.jpg",
  "tran_matrix_file": "cam_trans_matrix.csv",
  "text_overlay": true,
  "color": {
    "hue_target": 0,
    "hue_tolerance": 4,
    "sat_min": 70,
    "lum_min": 244,
    "red_min": 234
  },
  "checkerboard": {
    "square_size": 0.3937,
    "no_col": 6,
    "no_row": 7,
    "center_height": 1.9685
  },
  "FOV": {
    "width": 10,
    "height": 9,
    "ppi": 100,
    "obj_max_height": 9
  },
  "camera": {
    "width": 1280,
    "height": 720,
    "exposure": -6
  },
  "OPCUA": {
    "url_endpoint": "opc.tcp://192.168.173.15:4870",
    "node_area": "ns=3;s=Cyclops_IO_DB_area_measured",
    "node_heartbeat": "ns=3;s=Cyclops_IO_DB_signal_heartbeat"
  }
}
